%YAML 1.1
%TAG !u! tag:unity3d.com,2011:
--- !u!114 &11400000
MonoBehaviour:
  m_ObjectHideFlags: 0
  m_CorrespondingSourceObject: {fileID: 0}
  m_PrefabInstance: {fileID: 0}
  m_PrefabAsset: {fileID: 0}
  m_GameObject: {fileID: 0}
  m_Enabled: 1
  m_EditorHideFlags: 0
  m_Script: {fileID: 11500000, guid: 5bde31c704f36484e88c49c6eb615375, type: 3}
  m_Name: Skin 1
  m_EditorClassIdentifier: 
  skinSprite: {fileID: 21300000, guid: 4e286522ed0719841969470bdbebbace, type: 3}
  unlocked: 1
