%YAML 1.1
%TAG !u! tag:unity3d.com,2011:
--- !u!114 &11400000
MonoBehaviour:
  m_ObjectHideFlags: 0
  m_CorrespondingSourceObject: {fileID: 0}
  m_PrefabInstance: {fileID: 0}
  m_PrefabAsset: {fileID: 0}
  m_GameObject: {fileID: 0}
  m_Enabled: 1
  m_EditorHideFlags: 0
  m_Script: {fileID: 11500000, guid: b7f130d2baf79784f889cc54e2bb045b, type: 3}
  m_Name: Background Music List
  m_EditorClassIdentifier: 
  soundClips:
  - {fileID: 11400000, guid: 56acf445d9dd04840b1a9ac37c5f0eb2, type: 2}
  categoryName: Background Music List
