%YAML 1.1
%TAG !u! tag:unity3d.com,2011:
--- !u!114 &11400000
MonoBehaviour:
  m_ObjectHideFlags: 0
  m_CorrespondingSourceObject: {fileID: 0}
  m_PrefabInstance: {fileID: 0}
  m_PrefabAsset: {fileID: 0}
  m_GameObject: {fileID: 0}
  m_Enabled: 1
  m_EditorHideFlags: 0
  m_Script: {fileID: 11500000, guid: b7f130d2baf79784f889cc54e2bb045b, type: 3}
  m_Name: SFX List
  m_EditorClassIdentifier: 
  soundClips:
  - {fileID: 11400000, guid: d9a6ad9c9058d6d47b08a5d0ce00a4fc, type: 2}
  - {fileID: 11400000, guid: ba3e27417fc6cb8459ae8784373e4585, type: 2}
  - {fileID: 11400000, guid: 1d07e12b89e2c2d48a47ea50e601a8f5, type: 2}
  - {fileID: 11400000, guid: 115c8a9d3c51ae64896c5b94f91cc3e9, type: 2}
