%YAML 1.1
%TAG !u! tag:unity3d.com,2011:
--- !u!114 &11400000
MonoBehaviour:
  m_ObjectHideFlags: 0
  m_CorrespondingSourceObject: {fileID: 0}
  m_PrefabInstance: {fileID: 0}
  m_PrefabAsset: {fileID: 0}
  m_GameObject: {fileID: 0}
  m_Enabled: 1
  m_EditorHideFlags: 0
  m_Script: {fileID: 11500000, guid: 8e7508785099611478e20752878a2953, type: 3}
  m_Name: GameManager_SO
  m_EditorClassIdentifier: 
  challengeCost: 10
  unlockableDatas:
  - {fileID: 11400000, guid: 257e378756fd75943b954c6ab50131b2, type: 2}
  - {fileID: 11400000, guid: b4c2fdc7d9be4fe4f83dd0501efd34a2, type: 2}
  - {fileID: 11400000, guid: 2972eb9a766a2344e99d08f0fcef03bb, type: 2}
  - {fileID: 11400000, guid: f646827aea04f724496215e0a5899c7a, type: 2}
  - {fileID: 11400000, guid: f44ec1d3a381ca54cbefbbd56aaca422, type: 2}
  skinDatas:
  - {fileID: 11400000, guid: 1f758e7cacb69eb4eb356fe2116895fe, type: 2}
  - {fileID: 11400000, guid: ca8c9b7a08874a24db1077f08ac5e251, type: 2}
  - {fileID: 11400000, guid: 13a119c26a160bd41b2a10c24bf6a304, type: 2}
  - {fileID: 11400000, guid: 95c7c74d902e13940be4ef78567ca9da, type: 2}
  - {fileID: 11400000, guid: bf06403c824b18549b94e5b6d40000a6, type: 2}
  - {fileID: 11400000, guid: 49b1de955a2e3da418c20b87f7dd0f85, type: 2}
  - {fileID: 11400000, guid: ac3a81de6ebf0be4c950647bd6cd708a, type: 2}
  - {fileID: 11400000, guid: 9b9bfb41d9e32a343a9a039096da93c5, type: 2}
  - {fileID: 11400000, guid: bc7798c4f0b4f1b428815c2dc8025057, type: 2}
  inputType: 1
