%YAML 1.1
%TAG !u! tag:unity3d.com,2011:
--- !u!1 &284325433160889823
GameObject:
  m_ObjectHideFlags: 0
  m_CorrespondingSourceObject: {fileID: 0}
  m_PrefabInstance: {fileID: 0}
  m_PrefabAsset: {fileID: 0}
  serializedVersion: 6
  m_Component:
  - component: {fileID: 284325433160889816}
  - component: {fileID: 284325433160889817}
  - component: {fileID: 284325433160889822}
  m_Layer: 0
  m_Name: InterstitialAd
  m_TagString: Untagged
  m_Icon: {fileID: 0}
  m_NavMeshLayer: 0
  m_StaticEditorFlags: 0
  m_IsActive: 1
--- !u!4 &284325433160889816
Transform:
  m_ObjectHideFlags: 0
  m_CorrespondingSourceObject: {fileID: 0}
  m_PrefabInstance: {fileID: 0}
  m_PrefabAsset: {fileID: 0}
  m_GameObject: {fileID: 284325433160889823}
  m_LocalRotation: {x: -0, y: -0, z: -0, w: 1}
  m_LocalPosition: {x: 0, y: 0, z: 0}
  m_LocalScale: {x: 1, y: 1, z: 1}
  m_Children: []
  m_Father: {fileID: 0}
  m_RootOrder: 0
  m_LocalEulerAnglesHint: {x: 0, y: 0, z: 0}
--- !u!114 &284325433160889817
MonoBehaviour:
  m_ObjectHideFlags: 0
  m_CorrespondingSourceObject: {fileID: 0}
  m_PrefabInstance: {fileID: 0}
  m_PrefabAsset: {fileID: 0}
  m_GameObject: {fileID: 284325433160889823}
  m_Enabled: 1
  m_EditorHideFlags: 0
  m_Script: {fileID: 11500000, guid: 166d9e160c33d944498426fca4642ace, type: 3}
  m_Name: 
  m_EditorClassIdentifier: 
  gameManager: {fileID: 11400000, guid: 0310d58923f6cab438818d6906e05b80, type: 2}
  adManager: {fileID: 11400000, guid: 3876676aa8abc474286af3a8f538cb53, type: 2}
  gameOverCountLimit: 4
  muteMusic: {fileID: 11400000, guid: 91137be441ca64a4e935cc36b4aafad4, type: 2}
  unmuteMusic: {fileID: 11400000, guid: 0230ab48f76a0f142816c185aa135f72, type: 2}
  muteSFX: {fileID: 11400000, guid: 71a2894c01d42ca4ea2f7ae884d79db7, type: 2}
  unmuteSFX: {fileID: 11400000, guid: f1cf32bfb0b69774ea81012efd2379ee, type: 2}
--- !u!114 &284325433160889822
MonoBehaviour:
  m_ObjectHideFlags: 0
  m_CorrespondingSourceObject: {fileID: 0}
  m_PrefabInstance: {fileID: 0}
  m_PrefabAsset: {fileID: 0}
  m_GameObject: {fileID: 284325433160889823}
  m_Enabled: 1
  m_EditorHideFlags: 0
  m_Script: {fileID: 11500000, guid: 5c8f19c98e830a6458659febb08617e8, type: 3}
  m_Name: 
  m_EditorClassIdentifier: 
  gameEvent: {fileID: 11400000, guid: f11385fc631ce9b4c9f2d2550cd0f2ad, type: 2}
  response:
    m_PersistentCalls:
      m_Calls:
      - m_Target: {fileID: 284325433160889817}
        m_MethodName: DisplayInterstitialAd
        m_Mode: 1
        m_Arguments:
          m_ObjectArgument: {fileID: 0}
          m_ObjectArgumentAssemblyTypeName: UnityEngine.Object, UnityEngine
          m_IntArgument: 0
          m_FloatArgument: 0
          m_StringArgument: 
          m_BoolArgument: 0
        m_CallState: 2
