%YAML 1.1
%TAG !u! tag:unity3d.com,2011:
--- !u!114 &11400000
MonoBehaviour:
  m_ObjectHideFlags: 0
  m_CorrespondingSourceObject: {fileID: 0}
  m_PrefabInstance: {fileID: 0}
  m_PrefabAsset: {fileID: 0}
  m_GameObject: {fileID: 0}
  m_Enabled: 1
  m_EditorHideFlags: 0
  m_Script: {fileID: 11500000, guid: 59b7e645b6788174ba952a04979d2fcf, type: 3}
  m_Name: Game Over
  m_EditorClassIdentifier: 
  soundListType: 3
  clip: {fileID: 8300000, guid: a144b448baabdfe40802b9d18efc1f82, type: 3}
  volume: 1
  loop: 0
  startAtAwake: 0
